<?xml version="1.0" encoding="UTF-8"?>
<!DOCTYPE svg PUBLIC "-//W3C//DTD SVG 1.1//EN" "http://www.w3.org/Graphics/SVG/1.1/DTD/svg11.dtd">
<svg width="160mm" height="90mm" viewBox="0 0 16000 9000" version="1.1" xmlns="http://www.w3.org/2000/svg" stroke-width="28.222" stroke-linejoin="round" xml:space="preserve">
 <path fill="rgb(255,255,255)" stroke="none" d="M 8000,8999 L 0,8999 0,0 15999,0 15999,8999 8000,8999 Z"/>
 <path fill="none" stroke="rgb(179,179,179)" stroke-linejoin="round" d="M 7343,7296 L 2456,7296 2456,1421 12230,1421 12230,7296 7343,7296 Z"/>
 <path fill="none" stroke="rgb(179,179,179)" stroke-linejoin="round" d="M 2456,1420 L 2456,7295"/>
 <path fill="none" stroke="rgb(179,179,179)" stroke-linejoin="round" d="M 4085,1420 L 4085,7295"/>
 <path fill="none" stroke="rgb(179,179,179)" stroke-linejoin="round" d="M 5714,1420 L 5714,7295"/>
 <path fill="none" stroke="rgb(179,179,179)" stroke-linejoin="round" d="M 7343,1420 L 7343,7295"/>
 <path fill="none" stroke="rgb(179,179,179)" stroke-linejoin="round" d="M 8971,1420 L 8971,7295"/>
 <path fill="none" stroke="rgb(179,179,179)" stroke-linejoin="round" d="M 10600,1420 L 10600,7295"/>
 <path fill="none" stroke="rgb(179,179,179)" stroke-linejoin="round" d="M 12230,1420 L 12230,7295"/>
 <path fill="none" stroke="rgb(179,179,179)" stroke-linejoin="round" d="M 12230,7295 L 2456,7295"/>
 <path fill="none" stroke="rgb(179,179,179)" stroke-linejoin="round" d="M 12230,6315 L 2456,6315"/>
 <path fill="none" stroke="rgb(179,179,179)" stroke-linejoin="round" d="M 12230,5336 L 2456,5336"/>
 <path fill="none" stroke="rgb(179,179,179)" stroke-linejoin="round" d="M 12230,4358 L 2456,4358"/>
 <path fill="none" stroke="rgb(179,179,179)" stroke-linejoin="round" d="M 12230,3378 L 2456,3378"/>
 <path fill="none" stroke="rgb(179,179,179)" stroke-linejoin="round" d="M 12230,2399 L 2456,2399"/>
 <path fill="none" stroke="rgb(179,179,179)" stroke-linejoin="round" d="M 12230,1420 L 2456,1420"/>
 <path fill="none" stroke="rgb(179,179,179)" stroke-linejoin="round" d="M 2456,7445 L 2456,7295"/>
 <path fill="none" stroke="rgb(179,179,179)" stroke-linejoin="round" d="M 2456,7445 L 2456,7295"/>
 <path fill="none" stroke="rgb(179,179,179)" stroke-linejoin="round" d="M 4085,7445 L 4085,7295"/>
 <path fill="none" stroke="rgb(179,179,179)" stroke-linejoin="round" d="M 4085,7445 L 4085,7295"/>
 <path fill="none" stroke="rgb(179,179,179)" stroke-linejoin="round" d="M 5714,7445 L 5714,7295"/>
 <path fill="none" stroke="rgb(179,179,179)" stroke-linejoin="round" d="M 5714,7445 L 5714,7295"/>
 <path fill="none" stroke="rgb(179,179,179)" stroke-linejoin="round" d="M 7343,7445 L 7343,7295"/>
 <path fill="none" stroke="rgb(179,179,179)" stroke-linejoin="round" d="M 7343,7445 L 7343,7295"/>
 <path fill="none" stroke="rgb(179,179,179)" stroke-linejoin="round" d="M 8971,7445 L 8971,7295"/>
 <path fill="none" stroke="rgb(179,179,179)" stroke-linejoin="round" d="M 8971,7445 L 8971,7295"/>
 <path fill="none" stroke="rgb(179,179,179)" stroke-linejoin="round" d="M 10600,7445 L 10600,7295"/>
 <path fill="none" stroke="rgb(179,179,179)" stroke-linejoin="round" d="M 10600,7445 L 10600,7295"/>
 <path fill="none" stroke="rgb(179,179,179)" stroke-linejoin="round" d="M 12230,7445 L 12230,7295"/>
 <path fill="none" stroke="rgb(179,179,179)" stroke-linejoin="round" d="M 12230,7445 L 12230,7295"/>
 <path fill="none" stroke="rgb(179,179,179)" stroke-linejoin="round" d="M 2456,7295 L 12230,7295"/>
 <path fill="none" stroke="rgb(179,179,179)" stroke-linejoin="round" d="M 2306,7295 L 2456,7295"/>
 <path fill="none" stroke="rgb(179,179,179)" stroke-linejoin="round" d="M 2306,7295 L 2456,7295"/>
 <path fill="none" stroke="rgb(179,179,179)" stroke-linejoin="round" d="M 2306,6315 L 2456,6315"/>
 <path fill="none" stroke="rgb(179,179,179)" stroke-linejoin="round" d="M 2306,6315 L 2456,6315"/>
 <path fill="none" stroke="rgb(179,179,179)" stroke-linejoin="round" d="M 2306,5336 L 2456,5336"/>
 <path fill="none" stroke="rgb(179,179,179)" stroke-linejoin="round" d="M 2306,5336 L 2456,5336"/>
 <path fill="none" stroke="rgb(179,179,179)" stroke-linejoin="round" d="M 2306,4358 L 2456,4358"/>
 <path fill="none" stroke="rgb(179,179,179)" stroke-linejoin="round" d="M 2306,4358 L 2456,4358"/>
 <path fill="none" stroke="rgb(179,179,179)" stroke-linejoin="round" d="M 2306,3378 L 2456,3378"/>
 <path fill="none" stroke="rgb(179,179,179)" stroke-linejoin="round" d="M 2306,3378 L 2456,3378"/>
 <path fill="none" stroke="rgb(179,179,179)" stroke-linejoin="round" d="M 2306,2399 L 2456,2399"/>
 <path fill="none" stroke="rgb(179,179,179)" stroke-linejoin="round" d="M 2306,2399 L 2456,2399"/>
 <path fill="none" stroke="rgb(179,179,179)" stroke-linejoin="round" d="M 2306,1420 L 2456,1420"/>
 <path fill="none" stroke="rgb(179,179,179)" stroke-linejoin="round" d="M 2306,1420 L 2456,1420"/>
 <path fill="none" stroke="rgb(179,179,179)" stroke-linejoin="round" d="M 2456,7295 L 2456,1420"/>
 <path fill="none" stroke="rgb(0,69,134)" stroke-width="80" stroke-linejoin="round" d="M 2456,6552 L 4085,5732 5714,4741 7343,3778 8971,3573 10600,3649 12230,3705"/>
 <path fill="rgb(0,69,134)" stroke="none" d="M 2331,6427 L 2331,6677 2581,6677 2581,6427 2331,6427 Z"/>
 <path fill="none" stroke="rgb(0,69,134)" stroke-linejoin="round" d="M 2331,6427 L 2331,6677 2581,6677 2581,6427 2331,6427 Z"/>
 <path fill="rgb(0,69,134)" stroke="none" d="M 3960,5607 L 3960,5857 4210,5857 4210,5607 3960,5607 Z"/>
 <path fill="none" stroke="rgb(0,69,134)" stroke-linejoin="round" d="M 3960,5607 L 3960,5857 4210,5857 4210,5607 3960,5607 Z"/>
 <path fill="rgb(0,69,134)" stroke="none" d="M 5589,4616 L 5589,4866 5839,4866 5839,4616 5589,4616 Z"/>
 <path fill="none" stroke="rgb(0,69,134)" stroke-linejoin="round" d="M 5589,4616 L 5589,4866 5839,4866 5839,4616 5589,4616 Z"/>
 <path fill="rgb(0,69,134)" stroke="none" d="M 7218,3653 L 7218,3903 7468,3903 7468,3653 7218,3653 Z"/>
 <path fill="none" stroke="rgb(0,69,134)" stroke-linejoin="round" d="M 7218,3653 L 7218,3903 7468,3903 7468,3653 7218,3653 Z"/>
 <path fill="rgb(0,69,134)" stroke="none" d="M 8846,3448 L 8846,3698 9096,3698 9096,3448 8846,3448 Z"/>
 <path fill="none" stroke="rgb(0,69,134)" stroke-linejoin="round" d="M 8846,3448 L 8846,3698 9096,3698 9096,3448 8846,3448 Z"/>
 <path fill="rgb(0,69,134)" stroke="none" d="M 10475,3524 L 10475,3774 10725,3774 10725,3524 10475,3524 Z"/>
 <path fill="none" stroke="rgb(0,69,134)" stroke-linejoin="round" d="M 10475,3524 L 10475,3774 10725,3774 10725,3524 10475,3524 Z"/>
 <path fill="rgb(0,69,134)" stroke="none" d="M 12105,3580 L 12105,3830 12355,3830 12355,3580 12105,3580 Z"/>
 <path fill="none" stroke="rgb(0,69,134)" stroke-linejoin="round" d="M 12105,3580 L 12105,3830 12355,3830 12355,3580 12105,3580 Z"/>
 <path fill="none" stroke="rgb(255,66,14)" stroke-width="80" stroke-linejoin="round" d="M 2456,5699 L 4085,5048 5714,4197 7343,3517 8971,3465 10600,3401 12230,3433"/>
 <path fill="rgb(255,66,14)" stroke="none" d="M 2331,5699 L 2456,5824 2581,5699 2456,5574 2331,5699 Z"/>
 <path fill="none" stroke="rgb(255,66,14)" stroke-linejoin="round" d="M 2331,5699 L 2456,5824 2581,5699 2456,5574 2331,5699 Z"/>
 <path fill="rgb(255,66,14)" stroke="none" d="M 3960,5048 L 4085,5173 4210,5048 4085,4923 3960,5048 Z"/>
 <path fill="none" stroke="rgb(255,66,14)" stroke-linejoin="round" d="M 3960,5048 L 4085,5173 4210,5048 4085,4923 3960,5048 Z"/>
 <path fill="rgb(255,66,14)" stroke="none" d="M 5589,4197 L 5714,4322 5839,4197 5714,4072 5589,4197 Z"/>
 <path fill="none" stroke="rgb(255,66,14)" stroke-linejoin="round" d="M 5589,4197 L 5714,4322 5839,4197 5714,4072 5589,4197 Z"/>
 <path fill="rgb(255,66,14)" stroke="none" d="M 7218,3517 L 7343,3642 7468,3517 7343,3392 7218,3517 Z"/>
 <path fill="none" stroke="rgb(255,66,14)" stroke-linejoin="round" d="M 7218,3517 L 7343,3642 7468,3517 7343,3392 7218,3517 Z"/>
 <path fill="rgb(255,66,14)" stroke="none" d="M 8846,3465 L 8971,3590 9096,3465 8971,3340 8846,3465 Z"/>
 <path fill="none" stroke="rgb(255,66,14)" stroke-linejoin="round" d="M 8846,3465 L 8971,3590 9096,3465 8971,3340 8846,3465 Z"/>
 <path fill="rgb(255,66,14)" stroke="none" d="M 10475,3401 L 10600,3526 10725,3401 10600,3276 10475,3401 Z"/>
 <path fill="none" stroke="rgb(255,66,14)" stroke-linejoin="round" d="M 10475,3401 L 10600,3526 10725,3401 10600,3276 10475,3401 Z"/>
 <path fill="rgb(255,66,14)" stroke="none" d="M 12105,3433 L 12230,3558 12355,3433 12230,3308 12105,3433 Z"/>
 <path fill="none" stroke="rgb(255,66,14)" stroke-linejoin="round" d="M 12105,3433 L 12230,3558 12355,3433 12230,3308 12105,3433 Z"/>
 <path fill="none" stroke="rgb(255,211,32)" stroke-width="80" stroke-linejoin="round" d="M 2456,6552 L 4085,5732 5714,4741 7343,3778 8971,3573 10600,3649 12230,3705"/>
 <path fill="rgb(255,211,32)" stroke="none" d="M 2331,6427 L 2456,6677 2581,6427 2331,6427 Z"/>
 <path fill="none" stroke="rgb(255,211,32)" stroke-linejoin="round" d="M 2331,6427 L 2456,6677 2581,6427 2331,6427 Z"/>
 <path fill="rgb(255,211,32)" stroke="none" d="M 3960,5607 L 4085,5857 4210,5607 3960,5607 Z"/>
 <path fill="none" stroke="rgb(255,211,32)" stroke-linejoin="round" d="M 3960,5607 L 4085,5857 4210,5607 3960,5607 Z"/>
 <path fill="rgb(255,211,32)" stroke="none" d="M 5589,4616 L 5714,4866 5839,4616 5589,4616 Z"/>
 <path fill="none" stroke="rgb(255,211,32)" stroke-linejoin="round" d="M 5589,4616 L 5714,4866 5839,4616 5589,4616 Z"/>
 <path fill="rgb(255,211,32)" stroke="none" d="M 7218,3653 L 7343,3903 7468,3653 7218,3653 Z"/>
 <path fill="none" stroke="rgb(255,211,32)" stroke-linejoin="round" d="M 7218,3653 L 7343,3903 7468,3653 7218,3653 Z"/>
 <path fill="rgb(255,211,32)" stroke="none" d="M 8846,3448 L 8971,3698 9096,3448 8846,3448 Z"/>
 <path fill="none" stroke="rgb(255,211,32)" stroke-linejoin="round" d="M 8846,3448 L 8971,3698 9096,3448 8846,3448 Z"/>
 <path fill="rgb(255,211,32)" stroke="none" d="M 10475,3524 L 10600,3774 10725,3524 10475,3524 Z"/>
 <path fill="none" stroke="rgb(255,211,32)" stroke-linejoin="round" d="M 10475,3524 L 10600,3774 10725,3524 10475,3524 Z"/>
 <path fill="rgb(255,211,32)" stroke="none" d="M 12105,3580 L 12230,3830 12355,3580 12105,3580 Z"/>
 <path fill="none" stroke="rgb(255,211,32)" stroke-linejoin="round" d="M 12105,3580 L 12230,3830 12355,3580 12105,3580 Z"/>
 <path fill="none" stroke="rgb(87,157,28)" stroke-width="80" stroke-linejoin="round" d="M 2456,6552 L 4085,5489 5714,4612 7343,3666 8971,3512 10600,3580 12230,3567"/>
 <path fill="rgb(87,157,28)" stroke="none" d="M 2331,6677 L 2581,6677 2456,6427 2331,6677 Z"/>
 <path fill="none" stroke="rgb(87,157,28)" stroke-linejoin="round" d="M 2331,6677 L 2581,6677 2456,6427 2331,6677 Z"/>
 <path fill="rgb(87,157,28)" stroke="none" d="M 3960,5614 L 4210,5614 4085,5364 3960,5614 Z"/>
 <path fill="none" stroke="rgb(87,157,28)" stroke-linejoin="round" d="M 3960,5614 L 4210,5614 4085,5364 3960,5614 Z"/>
 <path fill="rgb(87,157,28)" stroke="none" d="M 5589,4737 L 5839,4737 5714,4488 5589,4737 Z"/>
 <path fill="none" stroke="rgb(87,157,28)" stroke-linejoin="round" d="M 5589,4737 L 5839,4737 5714,4488 5589,4737 Z"/>
 <path fill="rgb(87,157,28)" stroke="none" d="M 7218,3791 L 7468,3791 7343,3541 7218,3791 Z"/>
 <path fill="none" stroke="rgb(87,157,28)" stroke-linejoin="round" d="M 7218,3791 L 7468,3791 7343,3541 7218,3791 Z"/>
 <path fill="rgb(87,157,28)" stroke="none" d="M 8846,3637 L 9096,3637 8971,3387 8846,3637 Z"/>
 <path fill="none" stroke="rgb(87,157,28)" stroke-linejoin="round" d="M 8846,3637 L 9096,3637 8971,3387 8846,3637 Z"/>
 <path fill="rgb(87,157,28)" stroke="none" d="M 10475,3705 L 10725,3705 10600,3455 10475,3705 Z"/>
 <path fill="none" stroke="rgb(87,157,28)" stroke-linejoin="round" d="M 10475,3705 L 10725,3705 10600,3455 10475,3705 Z"/>
 <path fill="rgb(87,157,28)" stroke="none" d="M 12105,3692 L 12355,3692 12230,3442 12105,3692 Z"/>
 <path fill="none" stroke="rgb(87,157,28)" stroke-linejoin="round" d="M 12105,3692 L 12355,3692 12230,3442 12105,3692 Z"/>
 <path fill="none" stroke="rgb(126,0,33)" stroke-width="80" stroke-linejoin="round" d="M 2456,5699 L 4085,4898 5714,4027 7343,3441 8971,3418 10600,3356 12230,3417"/>
 <path fill="rgb(126,0,33)" stroke="none" d="M 2331,5574 L 2331,5824 2581,5699 2331,5574 Z"/>
 <path fill="none" stroke="rgb(126,0,33)" stroke-linejoin="round" d="M 2331,5574 L 2331,5824 2581,5699 2331,5574 Z"/>
 <path fill="rgb(126,0,33)" stroke="none" d="M 3960,4773 L 3960,5023 4210,4898 3960,4773 Z"/>
 <path fill="none" stroke="rgb(126,0,33)" stroke-linejoin="round" d="M 3960,4773 L 3960,5023 4210,4898 3960,4773 Z"/>
 <path fill="rgb(126,0,33)" stroke="none" d="M 5589,3902 L 5589,4152 5839,4027 5589,3902 Z"/>
 <path fill="none" stroke="rgb(126,0,33)" stroke-linejoin="round" d="M 5589,3902 L 5589,4152 5839,4027 5589,3902 Z"/>
 <path fill="rgb(126,0,33)" stroke="none" d="M 7218,3316 L 7218,3566 7468,3441 7218,3316 Z"/>
 <path fill="none" stroke="rgb(126,0,33)" stroke-linejoin="round" d="M 7218,3316 L 7218,3566 7468,3441 7218,3316 Z"/>
 <path fill="rgb(126,0,33)" stroke="none" d="M 8846,3293 L 8846,3543 9096,3418 8846,3293 Z"/>
 <path fill="none" stroke="rgb(126,0,33)" stroke-linejoin="round" d="M 8846,3293 L 8846,3543 9096,3418 8846,3293 Z"/>
 <path fill="rgb(126,0,33)" stroke="none" d="M 10475,3231 L 10475,3481 10725,3356 10475,3231 Z"/>
 <path fill="none" stroke="rgb(126,0,33)" stroke-linejoin="round" d="M 10475,3231 L 10475,3481 10725,3356 10475,3231 Z"/>
 <path fill="rgb(126,0,33)" stroke="none" d="M 12105,3292 L 12105,3542 12355,3417 12105,3292 Z"/>
 <path fill="none" stroke="rgb(126,0,33)" stroke-linejoin="round" d="M 12105,3292 L 12105,3542 12355,3417 12105,3292 Z"/>
 <path fill="none" stroke="rgb(131,202,255)" stroke-width="80" stroke-linejoin="round" d="M 2456,2617 L 4085,2496 5714,2482 7343,2475 8971,2474 10600,2473 12230,2472"/>
 <path fill="rgb(131,202,255)" stroke="none" d="M 2331,2617 L 2581,2742 2581,2492 2331,2617 Z"/>
 <path fill="none" stroke="rgb(131,202,255)" stroke-linejoin="round" d="M 2331,2617 L 2581,2742 2581,2492 2331,2617 Z"/>
 <path fill="rgb(131,202,255)" stroke="none" d="M 3960,2496 L 4210,2621 4210,2371 3960,2496 Z"/>
 <path fill="none" stroke="rgb(131,202,255)" stroke-linejoin="round" d="M 3960,2496 L 4210,2621 4210,2371 3960,2496 Z"/>
 <path fill="rgb(131,202,255)" stroke="none" d="M 5589,2482 L 5839,2607 5839,2357 5589,2482 Z"/>
 <path fill="none" stroke="rgb(131,202,255)" stroke-linejoin="round" d="M 5589,2482 L 5839,2607 5839,2357 5589,2482 Z"/>
 <path fill="rgb(131,202,255)" stroke="none" d="M 7218,2475 L 7468,2600 7468,2350 7218,2475 Z"/>
 <path fill="none" stroke="rgb(131,202,255)" stroke-linejoin="round" d="M 7218,2475 L 7468,2600 7468,2350 7218,2475 Z"/>
 <path fill="rgb(131,202,255)" stroke="none" d="M 8846,2474 L 9096,2599 9096,2349 8846,2474 Z"/>
 <path fill="none" stroke="rgb(131,202,255)" stroke-linejoin="round" d="M 8846,2474 L 9096,2599 9096,2349 8846,2474 Z"/>
 <path fill="rgb(131,202,255)" stroke="none" d="M 10475,2473 L 10725,2598 10725,2348 10475,2473 Z"/>
 <path fill="none" stroke="rgb(131,202,255)" stroke-linejoin="round" d="M 10475,2473 L 10725,2598 10725,2348 10475,2473 Z"/>
 <path fill="rgb(131,202,255)" stroke="none" d="M 12105,2472 L 12355,2597 12355,2347 12105,2472 Z"/>
 <path fill="none" stroke="rgb(131,202,255)" stroke-linejoin="round" d="M 12105,2472 L 12355,2597 12355,2347 12105,2472 Z"/>
 <text class="TextShape"><tspan class="TextParagraph" font-family="Liberation Sans, sans-serif" font-size="353px" font-weight="400"><tspan class="TextPosition" x="2244" y="7836"><tspan fill="rgb(0,0,0)" stroke="none">w0</tspan></tspan></tspan></text>
 <text class="TextShape"><tspan class="TextParagraph" font-family="Liberation Sans, sans-serif" font-size="353px" font-weight="400"><tspan class="TextPosition" x="3873" y="7836"><tspan fill="rgb(0,0,0)" stroke="none">w2</tspan></tspan></tspan></text>
 <text class="TextShape"><tspan class="TextParagraph" font-family="Liberation Sans, sans-serif" font-size="353px" font-weight="400"><tspan class="TextPosition" x="5502" y="7836"><tspan fill="rgb(0,0,0)" stroke="none">w5</tspan></tspan></tspan></text>
 <text class="TextShape"><tspan class="TextParagraph" font-family="Liberation Sans, sans-serif" font-size="353px" font-weight="400"><tspan class="TextPosition" x="7038" y="7836"><tspan fill="rgb(0,0,0)" stroke="none">w10</tspan></tspan></tspan></text>
 <text class="TextShape"><tspan class="TextParagraph" font-family="Liberation Sans, sans-serif" font-size="353px" font-weight="400"><tspan class="TextPosition" x="8667" y="7836"><tspan fill="rgb(0,0,0)" stroke="none">w20</tspan></tspan></tspan></text>
 <text class="TextShape"><tspan class="TextParagraph" font-family="Liberation Sans, sans-serif" font-size="353px" font-weight="400"><tspan class="TextPosition" x="10296" y="7836"><tspan fill="rgb(0,0,0)" stroke="none">w40</tspan></tspan></tspan></text>
 <text class="TextShape"><tspan class="TextParagraph" font-family="Liberation Sans, sans-serif" font-size="353px" font-weight="400"><tspan class="TextPosition" x="11926" y="7836"><tspan fill="rgb(0,0,0)" stroke="none">w80</tspan></tspan></tspan></text>
 <text class="TextShape"><tspan class="TextParagraph" font-family="Liberation Sans, sans-serif" font-size="353px" font-weight="400"><tspan class="TextPosition" x="2021" y="7415"><tspan fill="rgb(0,0,0)" stroke="none">0</tspan></tspan></tspan></text>
 <text class="TextShape"><tspan class="TextParagraph" font-family="Liberation Sans, sans-serif" font-size="353px" font-weight="400"><tspan class="TextPosition" x="1280" y="6435"><tspan fill="rgb(0,0,0)" stroke="none">10000</tspan></tspan></tspan></text>
 <text class="TextShape"><tspan class="TextParagraph" font-family="Liberation Sans, sans-serif" font-size="353px" font-weight="400"><tspan class="TextPosition" x="1280" y="5456"><tspan fill="rgb(0,0,0)" stroke="none">20000</tspan></tspan></tspan></text>
 <text class="TextShape"><tspan class="TextParagraph" font-family="Liberation Sans, sans-serif" font-size="353px" font-weight="400"><tspan class="TextPosition" x="1280" y="4477"><tspan fill="rgb(0,0,0)" stroke="none">30000</tspan></tspan></tspan></text>
 <text class="TextShape"><tspan class="TextParagraph" font-family="Liberation Sans, sans-serif" font-size="353px" font-weight="400"><tspan class="TextPosition" x="1280" y="3497"><tspan fill="rgb(0,0,0)" stroke="none">40000</tspan></tspan></tspan></text>
 <text class="TextShape"><tspan class="TextParagraph" font-family="Liberation Sans, sans-serif" font-size="353px" font-weight="400"><tspan class="TextPosition" x="1280" y="2518"><tspan fill="rgb(0,0,0)" stroke="none">50000</tspan></tspan></tspan></text>
 <text class="TextShape"><tspan class="TextParagraph" font-family="Liberation Sans, sans-serif" font-size="353px" font-weight="400"><tspan class="TextPosition" x="1280" y="1539"><tspan fill="rgb(0,0,0)" stroke="none">60000</tspan></tspan></tspan></text>
 <text class="TextShape"><tspan class="TextParagraph" font-family="Liberation Sans, sans-serif" font-size="459px" font-weight="400"><tspan class="TextPosition" x="6928" y="850"><tspan fill="rgb(0,0,0)" stroke="none">Buffer time</tspan></tspan></tspan></text>
 <path fill="none" stroke="rgb(0,69,134)" stroke-width="80" stroke-linejoin="round" d="M 12972,3387 L 13772,3387"/>
 <path fill="rgb(0,69,134)" stroke="none" d="M 13266,3282 L 13266,3493 13477,3493 13477,3282 13266,3282 Z"/>
 <path fill="none" stroke="rgb(0,69,134)" stroke-linejoin="round" d="M 13266,3282 L 13266,3493 13477,3493 13477,3282 13266,3282 Z"/>
 <path fill="none" stroke="rgb(255,66,14)" stroke-width="80" stroke-linejoin="round" d="M 12972,3832 L 13772,3832"/>
 <path fill="rgb(255,66,14)" stroke="none" d="M 13266,3832 L 13372,3938 13477,3832 13372,3727 13266,3832 Z"/>
 <path fill="none" stroke="rgb(255,66,14)" stroke-linejoin="round" d="M 13266,3832 L 13372,3938 13477,3832 13372,3727 13266,3832 Z"/>
 <path fill="none" stroke="rgb(255,211,32)" stroke-width="80" stroke-linejoin="round" d="M 12972,4277 L 13772,4277"/>
 <path fill="rgb(255,211,32)" stroke="none" d="M 13266,4172 L 13372,4383 13477,4172 13266,4172 Z"/>
 <path fill="none" stroke="rgb(255,211,32)" stroke-linejoin="round" d="M 13266,4172 L 13372,4383 13477,4172 13266,4172 Z"/>
 <path fill="none" stroke="rgb(87,157,28)" stroke-width="80" stroke-linejoin="round" d="M 12972,4721 L 13772,4721"/>
 <path fill="rgb(87,157,28)" stroke="none" d="M 13266,4827 L 13477,4827 13372,4616 13266,4827 Z"/>
 <path fill="none" stroke="rgb(87,157,28)" stroke-linejoin="round" d="M 13266,4827 L 13477,4827 13372,4616 13266,4827 Z"/>
 <path fill="none" stroke="rgb(126,0,33)" stroke-width="80" stroke-linejoin="round" d="M 12972,5166 L 13772,5166"/>
 <path fill="rgb(126,0,33)" stroke="none" d="M 13266,5061 L 13266,5272 13477,5166 13266,5061 Z"/>
 <path fill="none" stroke="rgb(126,0,33)" stroke-linejoin="round" d="M 13266,5061 L 13266,5272 13477,5166 13266,5061 Z"/>
 <path fill="none" stroke="rgb(131,202,255)" stroke-width="80" stroke-linejoin="round" d="M 12972,5611 L 13772,5611"/>
 <path fill="rgb(131,202,255)" stroke="none" d="M 13266,5611 L 13477,5717 13477,5506 13266,5611 Z"/>
 <path fill="none" stroke="rgb(131,202,255)" stroke-linejoin="round" d="M 13266,5611 L 13477,5717 13477,5506 13266,5611 Z"/>
 <text class="TextShape"><tspan class="TextParagraph" font-family="Liberation Sans, sans-serif" font-size="353px" font-weight="400"><tspan class="TextPosition" x="13872" y="3506"><tspan fill="rgb(0,0,0)" stroke="none">Bin packing</tspan></tspan></tspan></text>
 <text class="TextShape"><tspan class="TextParagraph" font-family="Liberation Sans, sans-serif" font-size="353px" font-weight="400"><tspan class="TextPosition" x="13872" y="3951"><tspan fill="rgb(0,0,0)" stroke="none">Mu</tspan></tspan></tspan></text>
 <text class="TextShape"><tspan class="TextParagraph" font-family="Liberation Sans, sans-serif" font-size="353px" font-weight="400"><tspan class="TextPosition" x="13872" y="4396"><tspan fill="rgb(0,0,0)" stroke="none">Turn off</tspan></tspan></tspan></text>
 <text class="TextShape"><tspan class="TextParagraph" font-family="Liberation Sans, sans-serif" font-size="353px" font-weight="400"><tspan class="TextPosition" x="13872" y="4840"><tspan fill="rgb(0,0,0)" stroke="none">Postpone</tspan></tspan></tspan></text>
 <text class="TextShape"><tspan class="TextParagraph" font-family="Liberation Sans, sans-serif" font-size="353px" font-weight="400"><tspan class="TextPosition" x="13872" y="5285"><tspan fill="rgb(0,0,0)" stroke="none">All</tspan></tspan></tspan></text>
 <text class="TextShape"><tspan class="TextParagraph" font-family="Liberation Sans, sans-serif" font-size="353px" font-weight="400"><tspan class="TextPosition" x="13872" y="5730"><tspan fill="rgb(0,0,0)" stroke="none">LR</tspan></tspan></tspan></text>
 <text class="TextShape"><tspan class="TextParagraph" font-family="Liberation Sans, sans-serif" font-size="318px" font-weight="400"><tspan class="TextPosition" x="6140" y="8431"><tspan fill="rgb(0,0,0)" stroke="none">Buffer time</tspan></tspan></tspan></text>
 <text class="TextShape" transform="translate(811,5680) rotate(-90) translate(-811,-5680)"><tspan class="TextParagraph" font-family="Liberation Sans, sans-serif" font-size="318px" font-weight="400"><tspan class="TextPosition" x="811" y="5680"><tspan fill="rgb(0,0,0)" stroke="none">Objective value</tspan></tspan></tspan></text>
</svg>